{
    "AWSTemplateFormatVersion": "2010-09-09",
    "Description": "v20210906-1",
    "Parameters": {
        "AwsAccountName": {
            "Description": "AWS Account Name",
            "Type": "String",
            "Default": "Angele"
        },
        "DefaultSG": {
            "Description": "Default SG",
            "Type": "String",
            "Default": "default"
        },
        "DefaultSGId": {
            "Description": "Default SG Id",
            "Type": "String",
            "Default": "sg-0942cebe1ac0a97bf"
        },
        "DBUsername": {
            "Description": "DBUsername",
            "Type": "String",
            "Default": "admin"
        },
        "DBPassword": {
            "Description": "DBPassword",
            "Type": "String",
            "Default": "JCrRuxemz9V3eG"
        },
        "DBName": {
            "Description": "DBName",
            "Type": "String",
            "Default": "front"
        },
        "DBIdentifier": {
            "Description": "DBIdentifier",
            "Type": "String",
            "Default": "mf21-front-1"
        },
        "SubnetsListForGroup": {
            "Type": "CommaDelimitedList",
            "Default": "subnet-0f9b0f3dfde9639b0,subnet-05d973a24f8e851b2,subnet-08cbb90ea91324a8f"
        }
    },
    "Resources": {
        "myDBSubnetGroup": {
            "Type": "AWS::RDS::DBSubnetGroup",
            "Properties": {
                "SubnetIds": {
                    "Ref": "SubnetsListForGroup"
                },
                "DBSubnetGroupDescription": "Subnets Group for RDS"
            }
        },
        "RdsDBCluster": {
            "Type": "AWS::RDS::DBCluster",
            "Properties": {
                "MasterUsername": {
                    "Ref": "DBUsername"
                },
                "MasterUserPassword": {
                    "Ref": "DBPassword"
                },
                "DatabaseName": {
                    "Ref": "DBName"
                },
                "DBClusterIdentifier": {
                    "Ref": "DBIdentifier"
                },
                "Engine": "aurora",
                "EngineMode": "serverless",
                "ScalingConfiguration": {
                    "AutoPause": "true",
                    "MaxCapacity": "2",
                    "MinCapacity": "1",
                    "SecondsUntilAutoPause": "300"
                },
                "DBSubnetGroupName": {
                    "Ref": "myDBSubnetGroup"
                }
            }
        }
    }
}
