{
    "AWSTemplateFormatVersion": "2010-09-09",
    "Description": "v20210129-1",
    "Parameters": {
        "AwsAccountName": {
            "Description": "AWS Account Name",
            "Type": "String",
            "Default": "angele7"
        }
    },
    "Resources": {
        "BoostrapS3Bucket": {
            "Type": "AWS::S3::Bucket",
            "DeletionPolicy": "Retain",
            "Properties": {
                "BucketName": {
                    "Fn::Join": [
                        "-",
                        [
                            { "Ref": "AWS::Region" },
                            { "Ref": "AwsAccountName" },
                            "lambdas-repository"
                        ]
                    ]
                }
            }
        }
    }
}
